^D:\PROJECTS\C AND CPP\MAZERMOUSE!\MAZERMOUSE!\SQUARE.CPP
/c /ZI /JMC /nologo /W3 /WX- /diagnostics:classic /sdl /Od /Oy- /D WIN32 /D _DEBUG /D _CONSOLE /D _UNICODE /D UNICODE /Gm- /EHsc /RTC1 /MDd /GS /fp:precise /permissive- /Zc:wchar_t /Zc:forScope /Zc:inline /Fo"DEBUG\\" /Fd"DEBUG\VC142.PDB" /Gd /TP /analyze- /FC D:\PROJECTS\C AND CPP\MAZERMOUSE!\MAZERMOUSE!\SQUARE.CPP
^D:\PROJECTS\C AND CPP\MAZERMOUSE!\MAZERMOUSE!\MAZERMOUSE!.CPP
/c /ZI /JMC /nologo /W3 /WX- /diagnostics:classic /sdl /Od /Oy- /D WIN32 /D _DEBUG /D _CONSOLE /D _UNICODE /D UNICODE /Gm- /EHsc /RTC1 /MDd /GS /fp:precise /permissive- /Zc:wchar_t /Zc:forScope /Zc:inline /Fo"DEBUG\\" /Fd"DEBUG\VC142.PDB" /Gd /TP /analyze- /FC D:\PROJECTS\C AND CPP\MAZERMOUSE!\MAZERMOUSE!\MAZERMOUSE!.CPP
^D:\PROJECTS\C AND CPP\MAZERMOUSE!\MAZERMOUSE!\BOARD.CPP
/c /ZI /JMC /nologo /W3 /WX- /diagnostics:classic /sdl /Od /Oy- /D WIN32 /D _DEBUG /D _CONSOLE /D _UNICODE /D UNICODE /Gm- /EHsc /RTC1 /MDd /GS /fp:precise /permissive- /Zc:wchar_t /Zc:forScope /Zc:inline /Fo"DEBUG\\" /Fd"DEBUG\VC142.PDB" /Gd /TP /analyze- /FC D:\PROJECTS\C AND CPP\MAZERMOUSE!\MAZERMOUSE!\BOARD.CPP
