^D:\PROJECTS\C AND CPP\MAZERMOUSE!\MAZERMOUSE!\DEBUG\BOARD.OBJ|D:\PROJECTS\C AND CPP\MAZERMOUSE!\MAZERMOUSE!\DEBUG\MAZERMOUSE!.OBJ|D:\PROJECTS\C AND CPP\MAZERMOUSE!\MAZERMOUSE!\DEBUG\SQUARE.OBJ
D:\PROJECTS\C AND CPP\MAZERMOUSE!\DEBUG\MAZERMOUSE!.EXE
D:\PROJECTS\C AND CPP\MAZERMOUSE!\DEBUG\MAZERMOUSE!.ILK
D:\PROJECTS\C AND CPP\MAZERMOUSE!\DEBUG\MAZERMOUSE!.PDB
